{
  "extends": ["tslint:latest", "tslint-config-prettier", "tslint-immutable"],
  "rules": {
    "adjacent-overload-signatures": true,
    "arrow-return-shorthand": true,
    "await-promise": true,
    "binary-expression-operand-order": true,
    "callable-types": true,
    "class-name": true,
    "comment-format": [true, "check-space"],
    "curly": true,
    "cyclomatic-complexity": false,
    "eofline": true,
    "forin": true,
    "import-blacklist": [true, "rxjs"],
    "interface-name": [true, "never-prefix"],
    "jsx-no-lambda": false,
    "jsx-no-multiline-js": false,
    "label-position": true,
    "max-classes-per-file": false,
    "member-access": false,
    "member-ordering": false,
    "new-parens": true,
    "no-angle-bracket-type-assertion": true,
    "no-any": true,
    "no-arg": true,
    "no-bitwise": true,
    "no-boolean-literal-compare": true,
    "no-conditional-assignment": true,
    "no-console": false,
    "no-construct": true,
    "no-debugger": false,
    "no-default-export": true,
    "no-duplicate-super": true,
    "no-duplicate-variable": true,
    "no-empty-interface": true,
    "no-empty": true,
    "no-eval": true,
    "no-floating-promises": true,
    "no-for-in-array": true,
    "no-implicit-dependencies": false,
    "no-inferrable-types": true,
    "no-internal-module": true,
    "no-invalid-template-strings": true,
    "no-invalid-this": true,
    "no-let": true,
    "no-misused-new": true,
    "no-namespace": true,
    "no-non-null-assertion": true,
    "no-object-literal-type-assertion": true,
    "no-object-mutation": true,
    "no-parameter-properties": true,
    "no-parameter-reassignment": true,
    "no-reference-import": true,
    "no-reference": true,
    "no-shadowed-variable": false,
    "no-sparse-arrays": true,
    "no-string-literal": true,
    "no-string-throw": true,
    "no-switch-case-fall-through": true,
    "no-this-assignment": true,
    "no-unbound-method": true,
    "no-unnecessary-callback-wrapper": true,
    "no-unnecessary-initializer": true,
    "no-unnecessary-qualifier": true,
    "no-unnecessary-type-assertion": true,
    "no-unsafe-finally": true,
    "no-unused-expression": true,
    "no-var-keyword": true,
    "no-var-requires": true,
    "object-literal-shorthand": true,
    "only-arrow-functions": true,
    "ordered-imports": false,
    "prefer-conditional-expression": true,
    "prefer-const": true,
    "prefer-for-of": true,
    "prefer-method-signature": true,
    "prefer-object-spread": true,
    "prefer-template": true,
    "promise-function-async": true,
    "radix": true,
    "readonly-array": true,
    "readonly-keyword": true,
    "restrict-plus-operands": true,
    "return-undefined": true,
    "strict-boolean-expressions": true,
    "strict-type-predicates": true,
    "switch-default": true,
    "trailing-comma": true,
    "triple-equals": [true, "allow-null-check"],
    "type-literal-delimiter": false,
    "use-default-type-parameter": true,
    "use-isnan": true,
    // disable this rule as it is very heavy performance-wise and not that useful
    "no-use-before-declare": false,
    "typedef": [
      true,
      "parameter",
      "property-declaration",
      "call-signature",
      "arrow-call-signature"
    ],
    "variable-name": [
      true,
      "ban-keywords",
      "check-format",
      "allow-leading-underscore",
      "allow-pascal-case"
    ]
  },
  "defaultSeverity": "error"
}
